\relax 
\@writefile{toc}{\contentsline {section}{\numberline {1}Assignment 1: Drawing a line}{1}\protected@file@percent }
\@writefile{toc}{\contentsline {section}{\numberline {2}Assignment 2: Interpolating the colour along a long}{3}\protected@file@percent }
\@writefile{toc}{\contentsline {section}{\numberline {3}Assignment 3: Interpolating pixels that are part of a triangle}{6}\protected@file@percent }
\@writefile{toc}{\contentsline {section}{\numberline {4}Assignment 4: Half plane test for determining if a point is inside or outside a triangle}{8}\protected@file@percent }
\@writefile{toc}{\contentsline {section}{\numberline {5}Assignment 5: Creating a ppm image of an interpolated triangle}{11}\protected@file@percent }
