\relax 
\providecommand\hyper@newdestlabel[2]{}
\providecommand\HyperFirstAtBeginDocument{\AtBeginDocument}
\HyperFirstAtBeginDocument{\ifx\hyper@anchor\@undefined
\global\let\oldcontentsline\contentsline
\gdef\contentsline#1#2#3#4{\oldcontentsline{#1}{#2}{#3}}
\global\let\oldnewlabel\newlabel
\gdef\newlabel#1#2{\newlabelxx{#1}#2}
\gdef\newlabelxx#1#2#3#4#5#6{\oldnewlabel{#1}{{#2}{#3}}}
\AtEndDocument{\ifx\hyper@anchor\@undefined
\let\contentsline\oldcontentsline
\let\newlabel\oldnewlabel
\fi}
\fi}
\global\let\hyper@last\relax 
\gdef\HyperFirstAtBeginDocument#1{#1}
\providecommand\HyField@AuxAddToFields[1]{}
\providecommand\HyField@AuxAddToCoFields[2]{}
\@writefile{toc}{\contentsline {section}{\numberline {1}Introduction}{2}{section.1}\protected@file@percent }
\@writefile{toc}{\contentsline {subsection}{\numberline {1.1}Overview}{2}{subsection.1.1}\protected@file@percent }
\@writefile{toc}{\contentsline {section}{\numberline {2}Band 1: 40\% \-- 50\%}{3}{section.2}\protected@file@percent }
\@writefile{toc}{\contentsline {subsection}{\numberline {2.1}Scene design}{3}{subsection.2.1}\protected@file@percent }
\@writefile{toc}{\contentsline {subsection}{\numberline {2.2}Requirement 1: complexity through instancing}{4}{subsection.2.2}\protected@file@percent }
\@writefile{toc}{\contentsline {subsubsection}{\numberline {2.2.1}Design}{5}{subsubsection.2.2.1}\protected@file@percent }
\@writefile{toc}{\contentsline {subsubsection}{\numberline {2.2.2}Design intentions}{6}{subsubsection.2.2.2}\protected@file@percent }
\@writefile{toc}{\contentsline {subsubsection}{\numberline {2.2.3}Implementation}{8}{subsubsection.2.2.3}\protected@file@percent }
\@writefile{toc}{\contentsline {subsection}{\numberline {2.3}Requirement 2: Light and material properties}{10}{subsection.2.3}\protected@file@percent }
\@writefile{toc}{\contentsline {section}{\numberline {3}Band 2: 50\% \-- 60\%}{12}{section.3}\protected@file@percent }
\@writefile{toc}{\contentsline {section}{\numberline {4}Band 3: 60\% \-- 70\%}{14}{section.4}\protected@file@percent }
\@writefile{toc}{\contentsline {subsection}{\numberline {4.1}Requirement 1: animation}{14}{subsection.4.1}\protected@file@percent }
\@writefile{toc}{\contentsline {subsubsection}{\numberline {4.1.1}Design}{15}{subsubsection.4.1.1}\protected@file@percent }
\@writefile{toc}{\contentsline {subsubsection}{\numberline {4.1.2}Implementation}{15}{subsubsection.4.1.2}\protected@file@percent }
\@writefile{toc}{\contentsline {subsection}{\numberline {4.2}Requirement 2: convex object}{16}{subsection.4.2}\protected@file@percent }
\@writefile{toc}{\contentsline {subsection}{\numberline {4.3}Requirement 3: texture mapping}{18}{subsection.4.3}\protected@file@percent }
\@writefile{toc}{\contentsline {subsubsection}{\numberline {4.3.1}Design}{18}{subsubsection.4.3.1}\protected@file@percent }
\providecommand*\caption@xref[2]{\@setref\relax\@undefined{#1}}
\newlabel{fig:sub1}{{\caption@xref {fig:sub1}{ on input line 363}}{18}{Design}{figure.caption.20}{}}
\newlabel{sub@fig:sub1}{{}{18}{Design}{figure.caption.20}{}}
\newlabel{fig:sub2}{{\caption@xref {fig:sub2}{ on input line 368}}{18}{Design}{figure.caption.20}{}}
\newlabel{sub@fig:sub2}{{}{18}{Design}{figure.caption.20}{}}
\newlabel{fig:sub2}{{\caption@xref {fig:sub2}{ on input line 373}}{18}{Design}{figure.caption.20}{}}
\newlabel{sub@fig:sub2}{{}{18}{Design}{figure.caption.20}{}}
\@writefile{lof}{\contentsline {figure}{\numberline {19}{\ignorespaces \textit  {textures.tar} texture design in scene\relax }}{18}{figure.caption.20}\protected@file@percent }
\newlabel{fig:test}{{19}{18}{\textit {textures.tar} texture design in scene\relax }{figure.caption.20}{}}
\newlabel{fig:1}{{\caption@xref {fig:1}{ on input line 397}}{19}{Design}{figure.caption.21}{}}
\newlabel{sub@fig:1}{{}{19}{Design}{figure.caption.21}{}}
\newlabel{fig:2}{{\caption@xref {fig:2}{ on input line 401}}{19}{Design}{figure.caption.21}{}}
\newlabel{sub@fig:2}{{}{19}{Design}{figure.caption.21}{}}
\newlabel{fig:3}{{\caption@xref {fig:3}{ on input line 405}}{19}{Design}{figure.caption.21}{}}
\newlabel{sub@fig:3}{{}{19}{Design}{figure.caption.21}{}}
\newlabel{fig:4}{{\caption@xref {fig:4}{ on input line 411}}{19}{Design}{figure.caption.21}{}}
\newlabel{sub@fig:4}{{}{19}{Design}{figure.caption.21}{}}
\newlabel{fig:5}{{\caption@xref {fig:5}{ on input line 415}}{19}{Design}{figure.caption.21}{}}
\newlabel{sub@fig:5}{{}{19}{Design}{figure.caption.21}{}}
\newlabel{fig:6}{{\caption@xref {fig:6}{ on input line 419}}{19}{Design}{figure.caption.21}{}}
\newlabel{sub@fig:6}{{}{19}{Design}{figure.caption.21}{}}
\newlabel{fig:4}{{\caption@xref {fig:4}{ on input line 425}}{19}{Design}{figure.caption.21}{}}
\newlabel{sub@fig:4}{{}{19}{Design}{figure.caption.21}{}}
\newlabel{fig:5}{{\caption@xref {fig:5}{ on input line 429}}{19}{Design}{figure.caption.21}{}}
\newlabel{sub@fig:5}{{}{19}{Design}{figure.caption.21}{}}
\newlabel{fig:6}{{\caption@xref {fig:6}{ on input line 433}}{19}{Design}{figure.caption.21}{}}
\newlabel{sub@fig:6}{{}{19}{Design}{figure.caption.21}{}}
\@writefile{lof}{\contentsline {figure}{\numberline {20}{\ignorespaces Additional textures used within the scene\relax }}{19}{figure.caption.21}\protected@file@percent }
\newlabel{fig:images}{{20}{19}{Additional textures used within the scene\relax }{figure.caption.21}{}}
\@writefile{toc}{\contentsline {subsubsection}{\numberline {4.3.2}Implementation}{20}{subsubsection.4.3.2}\protected@file@percent }
\@writefile{toc}{\contentsline {section}{\numberline {5}Band 4: 70\% \-- 100\%}{21}{section.5}\protected@file@percent }
\@writefile{toc}{\contentsline {subsection}{\numberline {5.1}Requirement 1: hierarchical modelling}{21}{subsection.5.1}\protected@file@percent }
\@writefile{toc}{\contentsline {subsection}{\numberline {5.2}Requirement 2: User interaction}{23}{subsection.5.2}\protected@file@percent }
\@writefile{toc}{\contentsline {section}{\numberline {6}Conclusion}{25}{section.6}\protected@file@percent }
\@writefile{toc}{\contentsline {section}{\numberline {7}Remarks}{25}{section.7}\protected@file@percent }
\@writefile{toc}{\contentsline {subsection}{\numberline {7.1}Code differences}{25}{subsection.7.1}\protected@file@percent }
\@writefile{toc}{\contentsline {subsection}{\numberline {7.2}Running the code}{25}{subsection.7.2}\protected@file@percent }
\@writefile{toc}{\contentsline {subsection}{\numberline {7.3}Video demonstration}{25}{subsection.7.3}\protected@file@percent }
